module subtrans

go 1.19

require github.com/schollz/progressbar/v3 v3.13.1

require (
	github.com/mattn/go-runewidth v0.0.14 // indirect
	github.com/mitchellh/colorstring v0.0.0-20190213212951-d06e56a500db // indirect
	github.com/rivo/uniseg v0.2.0 // indirect
	golang.org/x/sys v0.6.0 // indirect
	golang.org/x/term v0.6.0 // indirect
)
